[gd_scene load_steps=4 format=3 uid="uid://c51mp55tbegbb"]

[ext_resource type="Script" path="res://ending.gd" id="1_fnhwm"]
[ext_resource type="Texture2D" uid="uid://p0ismfpi5nmc" path="res://img/folk_ending.png" id="2_ou841"]
[ext_resource type="PackedScene" uid="uid://c5rddlfteb1eb" path="res://sounds.tscn" id="3_7va0a"]

[node name="FolkEnding" type="Node2D"]
script = ExtResource("1_fnhwm")
ending = &"folk"

[node name="Background" type="Sprite2D" parent="."]
position = Vector2(959.5, 539)
scale = Vector2(0.994271, 0.992592)
texture = ExtResource("2_ou841")

[node name="Sounds" parent="." instance=ExtResource("3_7va0a")]
