[gd_scene load_steps=3 format=3 uid="uid://7vihnglkl3gr"]

[ext_resource type="Script" path="res://dialog_box/dialog_box.gd" id="1_784fq"]
[ext_resource type="Texture2D" uid="uid://dimxayso1iub4" path="res://img/dialog_bg.png" id="2_tchc8"]

[node name="DialogBox" type="Control"]
layout_mode = 3
anchors_preset = 15
anchor_right = 1.0
anchor_bottom = 1.0
grow_horizontal = 2
grow_vertical = 2
script = ExtResource("1_784fq")

[node name="Box" type="TextureRect" parent="."]
layout_mode = 0
offset_left = 60.0
offset_top = 736.0
offset_right = 1236.0
offset_bottom = 932.0
texture = ExtResource("2_tchc8")

[node name="Text" type="RichTextLabel" parent="Box"]
clip_contents = false
layout_mode = 0
offset_left = 120.0
offset_top = 94.0
offset_right = 928.0
offset_bottom = 380.0
theme_override_colors/default_color = Color(0, 0, 0, 1)
theme_override_font_sizes/normal_font_size = 50
bbcode_enabled = true
text = " "
scroll_active = false
tab_size = 2

[node name="Timer" type="Timer" parent="Box"]
