[gd_resource type="Resource" script_class="Joke" load_steps=2 format=3 uid="uid://7jwuemgk7w6c"]

[ext_resource type="Script" path="res://joke_resource.gd" id="1_qegwf"]

[resource]
script = ExtResource("1_qegwf")
intent = &"FUNNY"
text = "What does a king and a cat have in common? They need peasants to feed them."
