[gd_resource type="Resource" script_class="Joke" load_steps=2 format=3 uid="uid://ct33x3fcd6qdb"]

[ext_resource type="Script" path="res://joke_resource.gd" id="1_1wxgr"]

[resource]
script = ExtResource("1_1wxgr")
intent = &"INSULTING"
text = "Who came first, the king or the kingdom? The kingdom, the king always comes last"
