[gd_resource type="Resource" script_class="Joke" load_steps=2 format=3 uid="uid://c1b4qd0cgfd2i"]

[ext_resource type="Script" path="res://joke_resource.gd" id="1_3bfp7"]

[resource]
script = ExtResource("1_3bfp7")
intent = &"INSULTING"
text = "What's the deal with court food?"
